﻿[
  {
    "id": 1,
    "question": "En la tortillería.\nPedro compra 2 kilos de tortillas, 3 Lt de frijol, paga con un billete de $200 y le regresan $88 de cambio.\nAna compra 3 kilos de tortillas, 1 Lt de frijol, paga con un billete de $100 y le regresan $16 de cambio.\nQué precio tiene el kilo de tortillas?\n\n2T + 3F + 88 = 200\n3T + F + 16 = 100",
    "options" : ["$20", "$11", "$18"], 
    "answer"  : 0
  },
  {
    "id": 2,
    "question": "¿Cuál fue la primera herramienta de John Deere considerada como un éxito y con la cuál se dio a conocer en 1837?",
    "options" : ["El tractor 6135E", "El arado autolimpiable", "Gorras con logotipo Deere"],
    "answer"  : 1
  },
  {
    "id": 3,
    "question": "¿Qué es CI/CD (Continuos Integration and Continuos Delivery)?",
    "options" : [
      "Es un versionador de código, este sirve para mantener controlados los cambios y desarrollos que los programadores hacen al código.\nEl más usado en la actualidad es git.",
      "Es una práctica usada por Software Developers para integrar, probar y deployar el código de muchos programadores varias veces al día.\nEsto asegura la calidad del código e incrementa la productividad.",
      "Es en lenguaje de programación moderno y de gran uso en la actualidad, este lenguaje tiene la utilidad de no necesitar pruebas ya que se deploya a los servidores de forma automática y funciona siempre sin problemas."
    ],
    "answer"  : 1
  }
]